Project 1: Exploratory Data Analysis
…
# Data is already tidy, utlizing pivot_wider() function to
# 'untidy' then tidy again
fulldata <- full_join(edustate, publicschool, by = c(state = "state"))

# Making combined data untidy using 'pivot_wider()'
untidy <- fulldata %>% pivot_wider(names_from = "region", values_from = "pop")

# Making combined data tidy again using 'pivot_longer()'
untidy %>% pivot_longer(cols = c("ESC", "PAC", "MTN", "WSC", 
    "NE", "SA", "ENC", "WNC", "MA"), names_to = "region", values_to = "pop") %>% 
    na.omit()

## # A tibble: 51 x 9
##    state  SATV  SATM dollars   pay education income region   pop
##    <chr> <dbl> <dbl>   <dbl> <dbl>     <dbl>  <dbl> <chr>  <dbl>
##  1 AL      470   514    3.65    27       112   2337 ESC     4041
##  2 AK      438   476    7.89    43       372   4146 PAC      550
##  3 AZ      445   497    4.23    30       207   3027 MTN     3665
##  4 AR      470   511    3.33    23       134   2322 WSC     2351
##  5 CA      419   484    4.83    39       273   3968 PAC    29760
##  6 CO      456   513    4.81    31       192   3340 MTN     3294
##  7 CT      430   471    7.91    43       193   4256 NE      3287
##  8 DE      433   470    6.02    35       248   3795 SA       666
##  9 DC      409   441    8.21    39       246   4425 SA       607
## 10 FL      418   466    5.15    30       191   3191 SA     12938
## # … with 41 more rows
…
3. Wrangling

# Mutate function adds the variable 'TotalSAT' to 'fulldata'
# set by combining the SAT verbal and mathematics sections
fulldata <- fulldata %>% mutate(TotalSAT = SATV + SATM)

The "fulldata" dataset was mutated to create the variable "TotalSAT" which is the addition of the math and verbal SAT portions to yield the total SAT score.

# 1: Looking at relationship between amount spent on public
# education (in $1000s/student) and overall SAT score by
# state (arranged greatest to lowest average SAT score)
fulldata %>% select(state, dollars, TotalSAT) %>% arrange(desc(dollars), 
    desc(TotalSAT))

## # A tibble: 51 x 3
##    state dollars TotalSAT
##    <chr>   <dbl>    <dbl>
##  1 NJ       9.16      891
##  2 NY       8.5       882
##  3 DC       8.21      850
##  4 CT       7.91      901
##  5 AK       7.89      914
##  6 RI       6.99      883
##  7 PA       6.53      883
##  8 MA       6.35      900
##  9 MD       6.18      908
## 10 DE       6.02      903
## # … with 41 more rows
…
The states were grouped by region in order to see the difference in mean overall SAT scores across the United States. The WNC region (West North Central) had the highest mean overall SAT score and the MA region (Midatlantic) had the lowest mean overall SAT score. All but one state in the WNC region scored above a 1000 on the SAT examination.

# 5: Grouping observation by state and summarizing by mean
# income, teacher salary, and mean SAT score
fulldata %>% group_by(state) %>% summarize(mean_income = income, 
    teacher_salary = pay, mean_SAT = mean(TotalSAT)) %>% arrange(desc(mean_income), 
    desc(teacher_salary), desc(mean_SAT))

## # A tibble: 51 x 4
##    state mean_income teacher_salary mean_SAT
##    <chr>       <dbl>          <dbl>    <dbl>
##  1 DC           4425             39      850
##  2 CT           4256             43      901
##  3 NY           4151             42      882
##  4 AK           4146             43      914
##  5 IL           3981             34      994
##  6 CA           3968             39      903
##  7 NV           3957             32      921
##  8 NJ           3954             38      891
##  9 MA           3835             36      900
## 10 DE           3795             35      903
## # … with 41 more rows
…
